[{
	"id"    :  2,
	"title" : "Property 2",
	"description" : "Sala, comedor, cocina, lavandería, baño completo, 01 estudio, escaleras interiores, cochera, áreas verdes.",
	"info"  : {"price": "280,000", "bathRoom": 2, "bedRoom": 3, "perimeter": 130, "room": 4},
	"img"   : "http://placehold.it/320x260/bbbbbb/ffffff",
	"propertyType" : "building-area",
	"url"   : "property-detail.html",
	"lon"   : -71.5607549,
	"lat"   : -16.3655846
},{
	"id"    :  3,
	"title" : "Property 3",
	"description" : "Segundo Nivel: 03 Dormitorios, Baño completo y Sala de estar.",
	"info"  : {"price": "280,000", "bathRoom": 2, "bedRoom": 3, "perimeter": 130, "room": 4},
	"img"   : "http://placehold.it/320x260/bbbbbb/ffffff",
	"propertyType" : "condominium",
	"url"   : "property-detail.html",
	"lon"   : -71.3607549,
	"lat"   : -16.6655846
},{
	"id"    :  91,
	"title" : "Property 91",
	"description": "Los primeros pilares de futuros hogares se están comenzando a formar. ¿Ya separaste tu vivienda",
	"info"  : {"price": "280,000", "bathRoom": 2, "bedRoom": 3, "perimeter": 130, "room": 4},
	"img"   : "http://placehold.it/320x260/bbbbbb/ffffff",
	"propertyType" : "family-house",
	"url"   : "property-detail.html",
	"lon"   : -71.8607549,
	"lat"   : -16.5655846
}]